[
    {
        "id": 1,
        "score": 1,
        "theme": "",
        "texte": "Notre Strum Master n'est pas un Servant Leader"
    }, {
        "id": 2,
        "score": 5,
        "theme": "",
        "texte": "La documentation produit est aux archives"
    }, {
        "id": 3,
        "score": 6,
        "theme": "",
        "texte": "Nous effectuons la Sptring review en vidéo conférence"
    }, {
        "id": 4,
        "score": 8,
        "theme": "",
        "texte": "Notre PO ne nous présente pas les US : elles sont tellement bien écrites, il n'y a qu'à les lire !"
    }, {
        "id": 5,
        "score": 9,
        "theme": "",
        "texte": "« La motivation intrinsèque ? Laisse-moi rire, je veux juste un bonus »"
    }, {
        "id": 6,
        "score": 10,
        "theme": "",
        "texte": "Un « sprint », c'est faire le plus possible le plus vite possible"
    }, {
        "id": 7,
        "score": 11,
        "theme": "",
        "texte": "Un effort indéfiniment soutenable, c'est aussi le dimanche après 23h"
    }, {
        "id": 8,
        "score": 12,
        "theme": "",
        "texte": "La maintenance du produit n'est pas faite par l'équipe qui l'a réalisé"
    }, {
        "id": 9,
        "score": 14,
        "theme": "",
        "texte": "Il est interdit de sketchnoter en réunion : ce n'est pas sérieux !"
    }, {
        "id": 10,
        "score": 15,
        "theme": "",
        "texte": "Notre backlog est priorisé avec la technique hippo"
    }, {
        "id": 11,
        "score": 16,
        "theme": "",
        "texte": "Un seul membre de l'équipe découpe en tâches les US"
    }, {
        "id": 12,
        "score": 18,
        "theme": "",
        "texte": "Vous entendez : « On a Jira ! Nous sommes agile ! »"
    }, {
        "id": 13,
        "score": 19,
        "theme": "",
        "texte": "Nous estimons le contenu de l'itération en jour / homme"
    }, {
        "id": 14,
        "score": 20,
        "theme": "",
        "texte": "Trop d'intervenants et pas de responsabilité partagée"
    }, {
        "id": 15,
        "score": 21,
        "theme": "",
        "texte": "L'approche du Shu Ha Ri, c'est le coachs qui viennent faire le job"
    }, {
        "id": 16,
        "score": 22,
        "theme": "",
        "texte": "Les membre de l'équipe ne travaillent pas sur le même produit"
    }, {
        "id": 17,
        "score": 23,
        "theme": "",
        "texte": "Vous entendez : « Je peux t'interrompre 5 minutes ? » plus de 9 fois par jour"
    }, {
        "id": 18,
        "score": 24,
        "theme": "",
        "texte": "Notre PO : « Ils sont chiants les dev ! Ils posent trop de questions ! »"
    }, {
        "id": 19,
        "score": 25,
        "theme": "",
        "texte": "Face to face ne veut pas dire feet to feet"
    }, {
        "id": 20,
        "score": 26,
        "theme": "",
        "texte": "Vous entendez « Être agile, c'est faire du Scrum »"
    }, {
        "id": 21,
        "score": 27,
        "theme": "",
        "texte": "La DOD ? C'est quoi ça ?"
    }, {
        "id": 22,
        "score": 29,
        "theme": "",
        "texte": "Dans notre équipe, Luc ne sait faire que du front et Yves que du back"
    }, {
        "id": 23,
        "score": 32,
        "theme": "",
        "texte": "Les managers donnent du travail en direct à l'équipe de réalisation"
    }, {
        "id": 24,
        "score": 33,
        "theme": "",
        "texte": "Faire des serious games sans jamais débriefer"
    }, {
        "id": 25,
        "score": 33,
        "theme": "",
        "texte": "Nous faisons du #noestimates ave Fibonacci"
    }, {
        "id": 26,
        "score": 36,
        "theme": "",
        "texte": "Nos rétrospectives servent de défouloir, c'est déjà ça"
    }, {
        "id": 27,
        "score": 38,
        "theme": "",
        "texte": "Nous faisons tous les rituels le même jour : nous optimisons notre temps en réunion !"
    }, {
        "id": 28,
        "score": 39,
        "theme": "",
        "texte": "Nous faisons du MVP cible : le jetable n'est pas envisageable"
    }, {
        "id": 29,
        "score": 40,
        "theme": "",
        "texte": "Le développeurs sont partagés entre deux équipes pour trois produits différents"
    }, {
        "id": 30,
        "score": 41,
        "theme": "",
        "texte": "Pour faire mon reporting, je convertis les story points en jour / homme"
    }, {
        "id": 31,
        "score": 42,
        "theme": "",
        "texte": "Par crainte des réactions, nous ne donnons jamais de feedbacks"
    }, {
        "id": 32,
        "score": 43,
        "theme": "",
        "texte": "Le Gemba-walk c'est fatigant. Nous n'en faisons pas"
    }, {
        "id": 33,
        "score": 44,
        "theme": "",
        "texte": "Gagnons du temps  Passons tout de suite à l'échelle !"
    }, {
        "id": 34,
        "score": 45,
        "theme": "",
        "texte": "L'équipe s'engage sur des US ne respectant pas la definition of ready"
    }, {
        "id": 35,
        "score": 48,
        "theme": "",
        "texte": "Notre daily dure 35 minutes. Du coup, on le fait assis"
    }, {
        "id": 36,
        "score": 51,
        "theme": "",
        "texte": "Notre daily est un compte-rendu au chef"
    }, {
        "id": 37,
        "score": 52,
        "theme": "",
        "texte": "Les testeurs valident les user stories au sprint n+1"
    }, {
        "id": 38,
        "score": 53,
        "theme": "",
        "texte": "Les critères d'acceptation sont trop longs à rédiger. Nous en avons zéro"
    }, {
        "id": 39,
        "score": 56,
        "theme": "",
        "texte": "Avoir un sprint à durée variable"
    }, {
        "id": 40,
        "score": 58,
        "theme": "",
        "texte": "On ne livre pas tant que nous n'avons pas toutes les US"
    }, {
        "id": 41,
        "score": 62,
        "theme": "",
        "texte": "Les sponsors valident (ou pas) l'incrément produit pendant la démo"
    }, {
        "id": 42,
        "score": 63,
        "theme": "",
        "texte": "Le Product Owner dit aux devs ce qu'ils doivent dire lors du stand-up"
    }, {
        "id": 43,
        "score": 64,
        "theme": "",
        "texte": "Chez nous, 1 story point = 1 jour / homme"
    }, {
        "id": 44,
        "score": 66,
        "theme": "",
        "texte": "« Commme nous n'avons rien à montrer, nous sautons la démo ! »"
    }, {
        "id": 45,
        "score": 69,
        "theme": "",
        "texte": "Il existe plusieurs backlogs pour un même produit"
    }, {
        "id": 46,
        "score": 72,
        "theme": "",
        "texte": "Dans l'équipe, il y a plus de PPO que de développeurs"
    }, {
        "id": 47,
        "score": 74,
        "theme": "",
        "texte": "Nous affectons une user story par développeur"
    }, {
        "id": 48,
        "score": 76,
        "theme": "",
        "texte": "Dans la dev team : Greg a une vélocité de 8 points, Aline ce 15 et Jérémy de 4"
    }, {
        "id": 49,
        "score": 82,
        "theme": "",
        "texte": "Notre Product Owner décide seul du contenu du sprint"
    }, {
        "id": 50,
        "score": 84,
        "theme": "",
        "texte": "Il y a un Scrum Master pour 4 équipes"
    }, {
        "id": 51,
        "score": 85,
        "theme": "",
        "texte": "La vision du produit n'est jamais partagée"
    }, {
        "id": 52,
        "score": 86,
        "theme": "",
        "texte": "L'estimation est faite par le Tech Lead dans son coin"
    }, {
        "id": 53,
        "score": 87,
        "theme": "",
        "texte": "Notre livraison est prévue dans 6 moins ! Nous ne livrons pas avant !"
    }, {
        "id": 54,
        "score": 90,
        "theme": "",
        "texte": "Super ! Les éléments du backlog sont priorisés, estimés, détaillées pour les 12 prochaines itérations"
    }, {
        "id": 55,
        "score": 92,
        "theme": "",
        "texte": "Notre PO suit les heures consommées et non pas la valeur livrée"
    }, {
        "id": 56,
        "score": 95,
        "theme": "",
        "texte": "« Nous avons arrêté les rétrospectives : ça sert à rien ! »"
    }
]
